[
    {
        "title": "SMS API Tutorial",
        "description": "<p>In this tutorial, you will learn how to use RingCentral SMS API. The following topics are included:</p>\n<ul>\n<li>How to send SMS</li>\n<li>How to send MMS</li>\n<li>How to track delivery status of messages</li>\n<li>How to retrieve and modify message history</li>\n<li>How to receive and reply to SMS messages</li>\n</ul>",
        "tags": [
            "SMS/MMS"
        ],
        "defaults": {
            "githubUri": "https://github.com/ringcentral-tutorials/sms-api-nodejs-demo/",
            "tutorialUri": "https://ringcentral-tutorials.github.io/sms-api-nodejs-demo/"
        },
        "languages": [
            {
                "name": "Node JS",
                "githubUri": "https://github.com/ringcentral-tutorials/sms-api-nodejs-demo/",
                "tutorialUri": "https://ringcentral-tutorials.github.io/sms-api-nodejs-demo/"
            },
            {
                "name": "Python",
                "githubUri": "https://github.com/ringcentral-tutorials/sms-api-python-demo/",
                "tutorialUri": "https://ringcentral-tutorials.github.io/sms-api-python-demo/"
            },
            {
                "name": "PHP",
                "githubUri": "https://github.com/ringcentral-tutorials/sms-api-php-demo/",
                "tutorialUri": "https://ringcentral-tutorials.github.io/sms-api-php-demo/"
            },
            {
                "name": "C#",
                "githubUri": "https://github.com/ringcentral-tutorials/sms-api-csharp-demo/",
                "tutorialUri": "https://ringcentral-tutorials.github.io/sms-api-csharp-demo/"
            }
        ]
    },
    {
        "title": "Getting Started with Event-Driven Subscriptions",
        "description": "<p>Event-Driven Subscriptions enables your company to subscribe to receive real-time events about your RingCentral Activity data. In this tutorial, you will learn how to get started creating and consuming these events using Node.js.</p>",
        "tags": [
            "Fundamentals"
        ],
        "defaults": {
            "githubUri": "https://github.com/ringcentral-tutorials/subscription-basics-nodejs-demo",
            "tutorialUri": "https://ringcentral-tutorials.github.io/subscription-basics-nodejs-demo/"
        },
        "languages": [
            {
                "name": "Node JS",
                "githubUri": "https://github.com/ringcentral-tutorials/subscription-basics-nodejs-demo",
                "tutorialUri": "https://ringcentral-tutorials.github.io/subscription-basics-nodejs-demo/"
            }
        ]
    },
    {
        "title": "Archiving Your RingCentral Activity Data",
        "description": "<p>Data Archival is necesary for your company to store their RingCentral Activity data long-term. In this tutorial you we will learn the basics of data archival, and using PHP to offload your RingCentral Activity data into persistent data stores such as: local system files, Amazon S3, and Dropbox.</p>",
        "tags": [
            "Configuration"
        ],
        "defaults": {
            "githubUri": "https://github.com/ringcentral-tutorials/data-archival-php-demo",
            "tutorialUri": "https://ringcentral-tutorials.github.io/data-archival-php-demo/"
        },
        "languages": [
            {
                "name": "PHP",
                "githubUri": "https://github.com/ringcentral-tutorials/data-archival-php-demo",
                "tutorialUri": "https://ringcentral-tutorials.github.io/data-archival-php-demo/"
            }
        ]
    },
    {
        "title": "Getting Started with Webhooks",
        "description": "<p>Webhooks enable your company to receive HTTP POST requests containing real-time event data about your RingCentral business communication account Activity. In this tutorial, you will learn how to get started create webhooks, and to handle the HTTP POST requests using Node.js.</p>",
        "tags": [
            "Fundamentals"
        ],
        "defaults": {
            "githubUri": "https://github.com/ringcentral-tutorials/webhook-basics-nodejs-demo",
            "tutorialUri": "https://ringcentral-tutorials.github.io/webhook-basics-nodejs-demo/"
        },
        "languages": [
            {
                "name": "Node JS",
                "githubUri": "https://github.com/ringcentral-tutorials/webhook-basics-nodejs-demo",
                "tutorialUri": "https://ringcentral-tutorials.github.io/webhook-basics-nodejs-demo/"
            }
        ]
    },
    {
        "title": "Getting Started with WebRTC",
        "description": "<p>WebRTC allows developers to build applications which support peer-to-peer (browser to browser) based voice calls using RingCentral. In this tutorial, you will learn how to get started using WebRTC with RingCentral, and how the demo application operates using HTML5, and JavaScript.</p>",
        "tags": [
            "Voice"
        ],
        "defaults": {
            "githubUri": "https://github.com/ringcentral/ringcentral-web-phone",
            "tutorialUri": "https://ringcentral-tutorials.github.io/getting-started-with-webrtc-js-demo/"
        },
        "languages": [
            {
                "name": "JavaScript",
                "githubUri": "https://github.com/ringcentral/ringcentral-web-phone",
                "tutorialUri": "https://ringcentral-tutorials.github.io/getting-started-with-webrtc-js-demo/"
            }
        ]
    },
    {
        "title": "OAuth in Node.js with Express",
        "description": "<p>In this tutorial, you will learn how to use RingCentral OAuth in Node.js with Express by a quick demo.</p>",
        "tags": [
            "Auth"
        ],
        "defaults": {
            "githubUri": "https://ringcentral-tutorials.github.io/oauth-nodejs-demo/",
            "tutorialUri": "https://ringcentral-tutorials.github.io/oauth-nodejs-demo/"
        },
        "languages": [
            {
                "name": "Node JS",
                "githubUri": "https://ringcentral-tutorials.github.io/oauth-nodejs-demo/",
                "tutorialUri": "https://ringcentral-tutorials.github.io/oauth-nodejs-demo/"
            }
        ]
    },
    {
        "title": "Glip Bot using IBM Watson and Botkit",
        "description": "<p>In this tutorial, you will learn how to use AI to enhance your team productivity using IBM Watson, Botkit and Glip using Node.js.</p>",
        "tags": [
            "Glip"
        ],
        "defaults": {
            "githubUri": "https://ringcentral-tutorials.github.io/botkit-watson-bot-nodejs-demo/",
            "tutorialUri": "https://ringcentral-tutorials.github.io/botkit-watson-bot-nodejs-demo/"
        },
        "languages": [
            {
                "name": "Node JS",
                "githubUri": "https://ringcentral-tutorials.github.io/botkit-watson-bot-nodejs-demo/",
                "tutorialUri": "https://ringcentral-tutorials.github.io/botkit-watson-bot-nodejs-demo/"
            }
        ]
    },
    {
        "title": "Call Log Analytics for iOS",
        "description": "<p>In this tutorial, you will learn how to use the RingCentral SDK for Swift to read call-log data from a RingCentral account.</p>",
        "tags": [
            "Data"
        ],
        "defaults": {
            "githubUri": " https://ringcentral-tutorials.github.io/calllog-analytics-swift-demo/",
            "tutorialUri": " https://ringcentral-tutorials.github.io/calllog-analytics-swift-demo/"
        },
        "languages": [
            {
                "name": "Swift",
                "githubUri": " https://ringcentral-tutorials.github.io/calllog-analytics-swift-demo/",
                "tutorialUri": " https://ringcentral-tutorials.github.io/calllog-analytics-swift-demo/"
            }
        ]
    },
    {
        "title": "A2P SMS Messaging",
        "description": "<p>In this tutorial, you will learn how to use RingCentral SMS and Push Notification APIs to implement a SMS bot. The bot will listen for incoming text commands then reply to the sender with relevant content.</p>",
        "tags": [
            "SMS/MMS"
        ],
        "defaults": {
            "githubUri": "https://ringcentral-tutorials.github.io/a2p-sms-messaging-nodejs-demo/",
            "tutorialUri": "https://ringcentral-tutorials.github.io/a2p-sms-messaging-nodejs-demo/"
        },
        "languages": [
            {
                "name": "Node JS",
                "githubUri": "https://ringcentral-tutorials.github.io/a2p-sms-messaging-nodejs-demo/",
                "tutorialUri": "https://ringcentral-tutorials.github.io/a2p-sms-messaging-nodejs-demo/"
            }
        ]
    },
    {
        "title": "2-Factor Authentication using RingCentral SMS API",
        "description": "<p>Learn how to use RingCentral SMS API to implement Two-Factor Authentication for enhancing security.</p>",
        "tags": [
            "SMS/MMS"
        ],
        "defaults": {
            "githubUri": "https://ringcentral-tutorials.github.io/sms-2fa_nodejs-demo/",
            "tutorialUri": "https://ringcentral-tutorials.github.io/sms-2fa-nodejs-demo/"
        },
        "languages": [
            {
                "name": "Node JS",
                "githubUri": "https://ringcentral-tutorials.github.io/sms-2fa-nodejs-demo/",
                "tutorialUri": "https://ringcentral-tutorials.github.io/sms-2fa-nodejs-demo/"
            },
            {
                "name": "Python",
                "githubUri": "https://ringcentral-tutorials.github.io/sms-2fa-python-demo/",
                "tutorialUri": "https://ringcentral-tutorials.github.io/sms-2fa-python-demo/"
            },
            {
                "name": "PHP",
                "githubUri": "https://ringcentral-tutorials.github.io/sms-2fa-php-demo/",
                "tutorialUri": "https://ringcentral-tutorials.github.io/sms-2fa-php-demo/"
            }
        ]
    },
    {
        "title": "Custom fax cover pages",
        "description": "<p>With RingCentral fax, you send a variety types of renderable documents. In this tutorial, you will learn how to send fax with HTML and PDF in node.js.</p>",
        "tags": [
            "Fax"
        ],
        "defaults": {
            "githubUri": "https://github.com/ringcentral-tutorials/fax-cover-page-nodejs-demo",
            "tutorialUri": "https://ringcentral-tutorials.github.io/fax-cover-page-nodejs-demo/index.html"
        },
        "languages": [
            {
                "name": "Node JS",
                "githubUri": "https://ringcentral-tutorials.github.io/fax-cover-page-nodejs-demo/index.html",
                "tutorialUri": "https://ringcentral-tutorials.github.io/fax-cover-page-nodejs-demo/index.html"
            }
        ]
    },
    {
        "title": "OAuth in web page",
        "description": "<p>In this tutorial, you will learn how to use RingCentral OAuth in web page with javascript SDK by a quick demo.</p>",
        "tags": [
            "Auth"
        ],
        "defaults": {
            "githubUri": "https://ringcentral-tutorials.github.io/oauth-js-demo/",
            "tutorialUri": "https://ringcentral-tutorials.github.io/oauth-js-demo/"
        },
        "languages": [
            {
                "name": "JavaScript",
                "githubUri": "https://ringcentral-tutorials.github.io/oauth-js-demo/",
                "tutorialUri": "https://ringcentral-tutorials.github.io/oauth-js-demo/"
            }
        ]
    },
    {
        "title": "OAuth Implicit Grant Flow in web page",
        "description": "<p>In this tutorial, you will learn how to use RingCentral OAuth Implicit grant flow in web page with javascript SDK by a quick demo.</p>",
        "tags": [
            "Auth"
        ],
        "defaults": {
            "githubUri": "https://ringcentral-tutorials.github.io/oauth-implicit-js-demo/",
            "tutorialUri": "https://ringcentral-tutorials.github.io/oauth-implicit-js-demo/"
        },
        "languages": [
            {
                "name": "JavaScript",
                "githubUri": "https://ringcentral-tutorials.github.io/oauth-implicit-js-demo/",
                "tutorialUri": "https://ringcentral-tutorials.github.io/oauth-implicit-js-demo/"
            }
        ]
    },
    {
        "title": "Call Log Visualization",
        "description": "<p>In this tutorial, you will learn how to access your RingCentral call log database by using the call-log API and the RingCentral Node JS SDK. You will learn how to parse the response, process the data and display the information on Google charts.</p>",
        "tags": [
            "Data"
        ],
        "defaults": {
            "githubUri": "https://ringcentral-tutorials.github.io/calllog-visualization-nodejs-demo/",
            "tutorialUri": "https://ringcentral-tutorials.github.io/calllog-visualization-nodejs-demo/"
        },
        "languages": [
            {
                "name": "Node JS",
                "githubUri": "https://ringcentral-tutorials.github.io/calllog-visualization-nodejs-demo",
                "tutorialUri": "https://ringcentral-tutorials.github.io/calllog-visualization-nodejs-demo"
            },
            {
                "name": "Python",
                "githubUri": "https://ringcentral-tutorials.github.io/calllog-visualization-python-demo",
                "tutorialUri": "https://ringcentral-tutorials.github.io/calllog-visualization-python-demo"
            },
            {
                "name": "PHP",
                "githubUri": "https://ringcentral-tutorials.github.io/calllog-visualization-php-demo",
                "tutorialUri": "https://ringcentral-tutorials.github.io/calllog-visualization-php-demo"
            }
        ]
    },
    {
        "title": "Call Recording Push Notification",
        "description": "<p>This tutorial shows how to use RingCentral Company Presence Event Push Notification API to get notified when a new call recording is logged into a user call log database.</p>",
        "tags": [
            "Fundamentals",
            "Data"
        ],
        "defaults": {
            "githubUri": "https://ringcentral-tutorials.github.io/callrecording-notification-node/",
            "tutorialUri": "https://ringcentral-tutorials.github.io/callrecording-notification-node/"
        },
        "languages": [
            {
                "name": "Node JS",
                "githubUri": "https://ringcentral-tutorials.github.io/callrecording-notification-node/",
                "tutorialUri": "https://ringcentral-tutorials.github.io/callrecording-notification-node/"
            }
        ]
    },
    {
	"title": "Call Control Quick Start",
        "description": "<p>The Call Control API allows developers to place, receive, control and monitor calls already in progress through a REST API. In this API overview and quick start, learn to receive notifications on new calls, and how forward, place on hold, transfer, record, flip and end calls.</p>",
        "tags": [
            "Voice"
        ],
        "defaults": {
            "githubUri": "https://github.com/ringcentral/ringcentral-api-docs/blob/master/docs/active_call_control_overview.md",
            "tutorialUri": "https://ringcentral-api-docs.readthedocs.io/en/latest/active_call_control_overview/"
        },
        "languages": [
            {
                "name": "Learn More",
                "githubUri": "https://github.com/ringcentral/ringcentral-api-docs/blob/master/docs/active_call_control_overview.md",
                "tutorialUri": "https://ringcentral-api-docs.readthedocs.io/en/latest/active_call_control_overview/"
            }
        ]
    },
    {
	"title": "Authorization Flows on RingCentral",
        "description": "<p>Applications on RingCentral have a number of ways to authorize users depending upon the modality, use case, and technical contraints of the application. This guide walks developers through each of our supported auth grant types, and how to use them.</p>",
        "tags": [
            "Auth"
        ],
        "defaults": {
            "githubUri": "",
            "tutorialUri": "https://ringcentral-api-docs.readthedocs.io/en/latest/oauth/"
        },
        "languages": [
            {
                "name": "Learn More",
                "githubUri": "",
                "tutorialUri": "https://ringcentral-api-docs.readthedocs.io/en/latest/oauth/"
            }
        ]
    },
    {
	"title": "Granting and Revoking User Permissions",
        "description": "<p>Learn how to view the Authorization Profile for a user extensions, and to modify the permissions associated with an extension, and user account to better manage and secure your RingCentral account.</p>",
        "tags": [
            "Configuration"
        ],
        "defaults": {
            "githubUri": "",
            "tutorialUri": "https://ringcentral-api-docs.readthedocs.io/en/latest/authorization_profile/"
        },
        "languages": [
            {
                "name": "Learn More",
                "githubUri": "",
                "tutorialUri": "https://ringcentral-api-docs.readthedocs.io/en/latest/authorization_profile/"
            }
        ]
    },
    {
	"title": "Archiving Account Activity Data",
        "description": "<p>RingCentral does not store account activity data in perpetuity. In this tutorial you will Learn how to extend the availability of your data beyond the Data Retention Policy defined by Ring Central</p>",
        "tags": [
            "Data"
        ],
        "defaults": {
            "githubUri": "",
            "tutorialUri": "https://ringcentral-api-docs.readthedocs.io/en/latest/data-archival/"
        },
        "languages": [
            {
                "name": "Learn More",
                "githubUri": "",
                "tutorialUri": "https://ringcentral-api-docs.readthedocs.io/en/latest/data-archival/"
            }
        ]
    },
    {
	"title": "Managing Phone Numbers, Extensions and Settings",
        "description": "<p>In this guide developers will learn how to manage the phone numbers and extensions within their organization -- provisioning new ones, managing their permissions and capabilities, and forwarding calls to external phone numbers.</p>",
        "tags": [
            "Configuration"
        ],
        "defaults": {
            "githubUri": "",
            "tutorialUri": "https://ringcentral-api-docs.readthedocs.io/en/latest/account_extension/"
        },
        "languages": [
            {
                "name": "Learn More",
                "githubUri": "",
                "tutorialUri": "https://ringcentral-api-docs.readthedocs.io/en/latest/account_extension/"
            }
        ]
    },
    {
	"title": "Working with Call Logs",
        "description": "<p>One of the most useful sources of data within RingCentral are an organizations call logs: a record of every call, SMS, fax and communication in and out, not to mention call recordings when applicable. This comprehensive guide will take developers through our APIs so that can make the most of this data.</p>",
        "tags": [
            "Data"
        ],
        "defaults": {
            "githubUri": "",
            "tutorialUri": "https://ringcentral-api-docs.readthedocs.io/en/latest/calllog_introduction/"
        },
        "languages": [
            {
                "name": "Learn More",
                "githubUri": "",
                "tutorialUri": "https://ringcentral-api-docs.readthedocs.io/en/latest/calllog_introduction/"
            }
        ]
    },
    {
	"title": "Common Principles of the RingCentral API",
        "description": "<p>This nuts-and-bolts guide walks developers through the basics that govern all of our APIs, from our URL pragma, object represention, user agents, and more.</p>",
        "tags": [
            "Fundamentals"
        ],
        "defaults": {
            "githubUri": "",
            "tutorialUri": "https://ringcentral-api-docs.readthedocs.io/en/latest/overview/"
        },
        "languages": [
            {
                "name": "Learn More",
                "githubUri": "",
                "tutorialUri": "https://ringcentral-api-docs.readthedocs.io/en/latest/overview/"
            }
        ]
    },
    {
	"title": "Subscribing to Real-time Push Notifications",
        "description": "<p>Learn how to deliver real-time push notifications to client applications, and mobile devices on the RingCentral platform using PubNub.</p>",
        "tags": [
            "Fundamentals"
        ],
        "defaults": {
            "githubUri": "",
            "tutorialUri": "https://ringcentral-api-docs.readthedocs.io/en/latest/notifications_pubsub/"
        },
        "languages": [
            {
                "name": "Learn More",
                "githubUri": "",
                "tutorialUri": "https://ringcentral-api-docs.readthedocs.io/en/latest/notifications_pubsub/"
            }
        ]
    },
    {
	"title": "Understanding API Rate Limits",
        "description": "<p>RingCentral puts in place API rate limits to protect customer accounts and infrastructure from abuse. Developers should be familiar with these policies and how to work responsibily with them.</p>",
        "tags": [
            "Fundamentals"
        ],
        "defaults": {
            "githubUri": "",
            "tutorialUri": "https://ringcentral-api-docs.readthedocs.io/en/latest/rate_limits/"
        },
        "languages": [
            {
                "name": "Learn More",
                "githubUri": "",
                "tutorialUri": "https://ringcentral-api-docs.readthedocs.io/en/latest/rate_limits/"
            }
        ]
    },
    {
	"title": "Upgrading from our Legacy APIs",
        "description": "<p>In May 2018 we announced the end-of-life of our RingOut.asp and FaxOut.asp APIs. This guide will help developers upgrade their implementations to utilize our enhanced REST APIs with zero loss of functionality.</p>",
        "tags": [
            "Fundamentals",
	    "Fax",
	    "Voice"
        ],
        "defaults": {
            "githubUri": "",
            "tutorialUri": "https://ringcentral-api-docs.readthedocs.io/en/latest/legacy_api_upgrade/"
        },
        "languages": [
            {
                "name": "Learn More",
                "githubUri": "",
                "tutorialUri": "https://ringcentral-api-docs.readthedocs.io/en/latest/legacy_api_upgrade/"
            }
        ]
    },
    {
	"title": "Subscribing to and Using Webhooks",
        "description": "<p>Webhooks allow developers to receive push notifications over the web for the events within their organization that client applications and integrations care about. This guide will show you how to create, renew and terminate webhook subscriptions.</p>",
        "tags": [
            "Fundamentals"
        ],
        "defaults": {
            "githubUri": "",
            "tutorialUri": "https://ringcentral-api-docs.readthedocs.io/en/latest/notifications_webhooks/"
        },
        "languages": [
            {
                "name": "Learn More",
                "githubUri": "",
                "tutorialUri": "https://ringcentral-api-docs.readthedocs.io/en/latest/notifications_webhooks/"
            }
        ]
    },
    {
	"title": "Building Glip Bots Using Ngrok",
        "description": "<p>Glip Bots cannot function without webhooks, which in turn requires bot apps to accessible over the Internet -- presenting challenges to developers building on their localhost. This guide will show how to use a free service called ngrok to develop Glip bots.</p>",
        "tags": [
            "Glip"
        ],
        "defaults": {
            "githubUri": "",
            "tutorialUri": "https://developers.ringcentral.com/guide/team-messaging/manual/local-bots"
        },
        "languages": [
            {
                "name": "Learn More",
                "githubUri": "",
                "tutorialUri": "https://developers.ringcentral.com/guide/team-messaging/manual/local-bots"
            }
        ]
    },
    {
	"title": "Creating Rich Posts in Glip",
        "description": "<p>Learn how to use Glip Message Attachments to attach rich content, such as formatting, images, and color, to the messages your Glip bots post to create more compelling and effective posts.</p>",
        "tags": [
            "Glip"
        ],
        "defaults": {
            "githubUri": "",
            "tutorialUri": "https://ringcentral-api-docs.readthedocs.io/en/latest/glip_message_attachments/"
        },
        "languages": [
            {
                "name": "Learn More",
                "githubUri": "",
                "tutorialUri": "https://ringcentral-api-docs.readthedocs.io/en/latest/glip_message_attachments/"
            }
        ]
    },
    {
	"title": "Creating and Managing Call Queues",
        "description": "<p>Call Queues allow multiple people to respond to incoming calls. Learn how to create and manage call queues on the fly to better respond to incoming customer calls.</p>",
        "tags": [
            "Voice",
	    "Configuration"
        ],
        "defaults": {
            "githubUri": "",
            "tutorialUri": "https://ringcentral-api-docs.readthedocs.io/en/latest/call_queue/"
        },
        "languages": [
            {
                "name": "Learn More",
                "githubUri": "",
                "tutorialUri": "https://ringcentral-api-docs.readthedocs.io/en/latest/call_queue/"
            }
        ]
    },
    {
	"title": "Placing Calls Using RingOut",
        "description": "<p>RingOut enables people to make a call from any non-RingCentral number by means of the RingCentral account. It works by dialing the caller, and when answered, then dialing-in and connecting the recipient. Learn how to initiate phone calls using the RingOut API.</p>",
        "tags": [
            "Voice"
        ],
        "defaults": {
            "githubUri": "",
            "tutorialUri": "https://ringcentral-api-docs.readthedocs.io/en/latest/calls_ringout/"
        },
        "languages": [
            {
                "name": "Learn More",
                "githubUri": "",
                "tutorialUri": "https://ringcentral-api-docs.readthedocs.io/en/latest/calls_ringout/"
            }
        ]
    },
    {
	"title": "Making Calls Using WebRTC",
        "description": "<p>This guide provides developers the information needed to begin making and receiving phone calls through a web browser using WebRTC, a web standard for real-time, peer-to-peer voice communications.</p>",
        "tags": [
            "Voice"
        ],
        "defaults": {
            "githubUri": "",
            "tutorialUri": "https://ringcentral-api-docs.readthedocs.io/en/latest/calls_webrtc/"
        },
        "languages": [
            {
                "name": "Learn More",
                "githubUri": "",
                "tutorialUri": "https://ringcentral-api-docs.readthedocs.io/en/latest/calls_webrtc/"
            }
        ]
    },
    {
	"title": "Sending Faxes via an API",
        "description": "<p>Learn how to send a fax using the RingCentral API. Then learn how to forward, resend and even receive faxes.</p>",
        "tags": [
            "Fax"
        ],
        "defaults": {
            "githubUri": "",
            "tutorialUri": "https://ringcentral-api-docs.readthedocs.io/en/latest/messages_faxes/"
        },
        "languages": [
            {
                "name": "Learn More",
                "githubUri": "",
                "tutorialUri": "https://ringcentral-api-docs.readthedocs.io/en/latest/messages_faxes/"
            }
        ]
    },
    {
	"title": "Sending Messages on RingCentral",
        "description": "<p>Voicemails, Faxes, SMS/MMSs, and Pager messages are all different message types supported by RingCentral. Learn about how to access message stores, and to send these different types of messaging via our API.</p>",
        "tags": [
            "SMS/MMS",
	    "Fax"
        ],
        "defaults": {
            "githubUri": "",
            "tutorialUri": "https://ringcentral-api-docs.readthedocs.io/en/latest/messages_introduction"
        },
        "languages": [
            {
                "name": "Learn More",
                "githubUri": "",
                "tutorialUri": "https://ringcentral-api-docs.readthedocs.io/en/latest/messages_introduction/"
            }
        ]
    },
    {
        "title": "RingCentral Platform Authentication with Password Flow OAuth.",
        "description": "<p>In this tutorial, you will learn how to authenticate RingCentral platform with Password Flow OAuth using RingCentral SDK</p>",
        "tags": [
            "OAuth","Password Flow"
        ],
        "defaults": {
            "githubUri": "https://github.com/ringcentral-tutorials/password-flow-authentication-nodejs-demo/",
            "tutorialUri": "https://ringcentral-tutorials.github.io/password-flow-authentication-nodejs-demo//"
        },
        "languages": [
            {
                "name": "Node JS",
                "githubUri": "https://github.com/ringcentral-tutorials/password-flow-authentication-nodejs-demo/",
                "tutorialUri": "https://ringcentral-tutorials.github.io/password-flow-authentication-nodejs-demo//"
            },
            {
                "name": "Python",
                "githubUri": "https://github.com/ringcentral-tutorials/password-flow-authentication-python-demo/",
                "tutorialUri": "https://ringcentral-tutorials.github.io/password-flow-authentication-python-demo/"
            },
            {
                "name": "PHP",
                "githubUri": "https://github.com/ringcentral-tutorials/password-flow-authentication-php-demo/",
                "tutorialUri": "https://ringcentral-tutorials.github.io/password-flow-authentication-php-demo//"
            }
        ]
    },
    {
        "title": "Access RingCentral platform services using native APIs",
        "description": "<p>In this tutorial, you will learn how to authenticate RingCentral platform with Password Flow OAuth using native APIs</p>",
        "tags": [
            "OAuth","Password Flow"
        ],
        "defaults": {
            "githubUri": "https://github.com/ringcentral-tutorials/call-ringcentral-apis-native-nodejs-demo/",
            "tutorialUri": "https://ringcentral-tutorials.github.io/call-ringcentral-apis-native-nodejs-demo/"
        },
        "languages": [
            {
                "name": "Node JS",
                "githubUri": "https://github.com/ringcentral-tutorials/call-ringcentral-apis-native-nodejs-demo/",
                "tutorialUri": "https://ringcentral-tutorials.github.io/call-ringcentral-apis-native-nodejs-demo/"
            },
            {
                "name": "Python",
                "githubUri": "https://github.com/ringcentral-tutorials/call-ringcentral-apis-native-python-demo/",
                "tutorialUri": "https://ringcentral-tutorials.github.io/call-ringcentral-apis-native-python-demo/"
            },
            {
                "name": "PHP",
                "githubUri": "https://github.com/ringcentral-tutorials/call-ringcentral-apis-native-php-demo/",
                "tutorialUri": "https://ringcentral-tutorials.github.io/call-ringcentral-apis-native-php-demo/"
            }
        ]
    },
    {
        "title": "RingCentral Authorization Code Flow OAuth",
        "description": "<p>In this step-by-step tutorial, you are going to learn how to authorize a user to login RingCentral platform using the authorization code flow.</p>",
        "tags": [
            "OAuth","Authorization Code Flow"
        ],
        "defaults": {
            "githubUri": "https://github.com/ringcentral-tutorials/authorization-code-flow-oauth-nodejs-demo/",
            "tutorialUri": "https://ringcentral-tutorials.github.io/authorization-code-flow-oauth-nodejs-demo/"
        },
        "languages": [
            {
                "name": "Node JS",
                "githubUri": "https://github.com/ringcentral-tutorials/authorization-code-flow-oauth-nodejs-demo/",
                "tutorialUri": "https://ringcentral-tutorials.github.io/authorization-code-flow-oauth-nodejs-demo/"
            },
            {
                "name": "Python",
                "githubUri": "https://github.com/ringcentral-tutorials/authorization-code-flow-oauth-python-demo/",
                "tutorialUri": "https://ringcentral-tutorials.github.io/authorization-code-flow-oauth-python-demo/"
            },
            {
                "name": "PHP",
                "githubUri": "https://github.com/ringcentral-tutorials/authorization-code-flow-oauth-php-demo/",
                "tutorialUri": "https://ringcentral-tutorials.github.io/authorization-code-flow-oauth-php-demo/"
            }
        ]
    },
    {
        "title": "Download Message Attachments from Message Store",
        "description": "<p>In this step-by-step tutorial, you are going to learn how to access a user's message store and download message attachments to save them in a local machine.</p>",
        "tags": [
            "Message Store"
        ],
        "defaults": {
            "githubUri": "https://github.com/ringcentral-tutorials/message-store-download-content-nodejs-demo/",
            "tutorialUri": "https://ringcentral-tutorials.github.io/message-store-download-content-nodejs-demo/"
        },
        "languages": [
            {
                "name": "Node JS",
                "githubUri": "https://github.com/ringcentral-tutorials/message-store-download-content-nodejs-demo/",
                "tutorialUri": "https://ringcentral-tutorials.github.io/message-store-download-content-nodejs-demo/"
            },
            {
                "name": "Python",
                "githubUri": "https://github.com/ringcentral-tutorials/message-store-download-content-python-demo/",
                "tutorialUri": "https://ringcentral-tutorials.github.io/message-store-download-content-python-demo/"
            },
            {
                "name": "PHP",
                "githubUri": "https://github.com/ringcentral-tutorials/message-store-download-content-php-demo/",
                "tutorialUri": "https://ringcentral-tutorials.github.io/message-store-download-content-php-demo/"
            },
            {
                "name": "C-Sharp",
                "githubUri": "https://github.com/ringcentral-tutorials/message-store-download-content-csharp-demo/",
                "tutorialUri": "https://ringcentral-tutorials.github.io/message-store-download-content-csharp-demo/"
            }
        ]
    }
]
